Lab08NotTeamOne
…
## [1] -0.5099603

## [1] -0.3419494

There is a negative coorelation between the average price of avocadoes and the total volume of avocadoes present. This makes sense because the more avocadoes you have, the quiker you need to sell them. Thus, it would make sense to lower the prices. This correlation becomes stronger with volumes greater than 2e+07. Red line coorelation is -.34, while the blue line is -.50. This leads us to believe that with excessive amounts of avocadoes,it would be more profitable to decrease the prices than letting avocadoes go to waste.

Regional effect on Price:

## # A tibble: 54 x 2
##   region         mean
##   <fct>         <dbl>
## 1 Houston        1.05
## 2 DallasFtWorth  1.09
## 3 SouthCentral   1.10
## #  with 51 more rows
…
